\relax 
\citation{SFAXI2015}
\citation{SFAXI2015}
\citation{Latex}
\citation{Latex}
\@writefile{toc}{\contentsline {chapter}{Introduction G\'en\'erale}{1}{Doc-Start}}
\@writefile{brf}{\backcite{SFAXI2015}{{1}{(document)}{Doc-Start}}}
\@writefile{brf}{\backcite{Latex}{{1}{(document)}{Doc-Start}}}
\@setckpt{Introduction/introduction}{
\setcounter{page}{2}
\setcounter{equation}{0}
\setcounter{enumi}{4}
\setcounter{enumii}{0}
\setcounter{enumiii}{0}
\setcounter{enumiv}{0}
\setcounter{footnote}{1}
\setcounter{mpfootnote}{0}
\setcounter{part}{0}
\setcounter{chapter}{0}
\setcounter{section}{0}
\setcounter{subsection}{0}
\setcounter{subsubsection}{0}
\setcounter{paragraph}{0}
\setcounter{subparagraph}{0}
\setcounter{figure}{0}
\setcounter{table}{0}
\setcounter{NAT@ctr}{0}
\setcounter{float@type}{8}
\setcounter{Item}{4}
\setcounter{bookmark@seq@number}{5}
\setcounter{mtc}{2}
\setcounter{minitocdepth}{2}
\setcounter{ptc}{0}
\setcounter{parttocdepth}{2}
\setcounter{parentequation}{0}
\setcounter{DefaultLines}{2}
\setcounter{L@lines}{0}
\setcounter{OptionTest}{0}
\setcounter{SC@C}{0}
\setcounter{ContinuedFloat}{0}
\setcounter{KVtest}{0}
\setcounter{subfigure}{0}
\setcounter{subfigure@save}{0}
\setcounter{lofdepth}{1}
\setcounter{subtable}{0}
\setcounter{subtable@save}{0}
\setcounter{lotdepth}{1}
\setcounter{lstnumber}{1}
\setcounter{section@level}{0}
\setcounter{minilofdepth}{2}
\setcounter{minilotdepth}{2}
\setcounter{partlofdepth}{2}
\setcounter{partlotdepth}{2}
\setcounter{sectlofdepth}{2}
\setcounter{sectlotdepth}{2}
\setcounter{lstlisting}{0}
}
