\select@language {french}
\contentsline {chapter}{Liste des Figures}{iii}{Doc-Start}
\contentsline {xchapter}{}{iii}{Doc-Start}
\contentsline {chapter}{Liste des Tableaux}{iv}{Doc-Start}
\contentsline {xchapter}{}{iv}{Doc-Start}
\contentsline {chapter}{R\'esum\'e}{v}{Doc-Start}
\contentsline {chapter}{Abstract}{vi}{Doc-Start}
\contentsline {chapter}{Introduction G\'en\'erale}{1}{Doc-Start}
\contentsline {chapter}{\numberline {I}\'Etude Th\'eorique}{2}{chapter.1}
\contentsline {section}{\numberline {1}\'Etat de l'art}{2}{section.1.1}
\contentsline {section}{\numberline {2}\'Etude de l'existant}{3}{section.1.2}
\contentsline {chapter}{\numberline {II}Conception}{4}{chapter.2}
\contentsline {section}{\numberline {1}Recommadations}{4}{section.2.1}
\contentsline {section}{\numberline {2}Diagrammes}{4}{section.2.2}
\contentsline {subsection}{\numberline {2.1}Diagramme de S\'equence}{5}{subsection.2.2.1}
\contentsline {subsection}{\numberline {2.2}Diagramme de Classes}{5}{subsection.2.2.2}
\contentsline {chapter}{\numberline {III}R\'ealisation}{6}{chapter.3}
\contentsline {section}{\numberline {1}Outils et langages utilis\'es}{6}{section.3.1}
\contentsline {section}{\numberline {2}Pr\'esentation de l'application}{6}{section.3.2}
\contentsline {subsection}{\numberline {2.1}Exemple de tableau}{7}{subsection.3.2.1}
\contentsline {subsection}{\numberline {2.2}Exemple de Code}{7}{subsection.3.2.2}
\contentsline {section}{\numberline {3}Remarques sur la bibliographie}{8}{section.3.3}
\contentsline {chapter}{Conclusion G\'en\'erale et Perspectives}{10}{chapter*.10}
\contentsline {chapter}{Bibliographique}{11}{chapter*.10}
\contentsline {chapter}{Annexe : Remarques Diverses}{12}{chapter*.11}
