\relax 
\@writefile{toc}{\contentsline {chapter}{\numberline {II}Conception}{4}{chapter.2}}
\@writefile{lof}{\addvspace {10\p@ }}
\@writefile{lot}{\addvspace {10\p@ }}
\@writefile{lof}{\contentsline {xchapter}{Conception}{4}{chapter.2}}
\@writefile{lot}{\contentsline {xchapter}{Conception}{4}{chapter.2}}
\@writefile{toc}{\contentsline {section}{\numberline {1}Recommadations}{4}{section.2.1}}
\@writefile{toc}{\contentsline {section}{\numberline {2}Diagrammes}{4}{section.2.2}}
\@writefile{toc}{\contentsline {subsection}{\numberline {2.1}Diagramme de S\'equence}{5}{subsection.2.2.1}}
\@writefile{toc}{\contentsline {subsection}{\numberline {2.2}Diagramme de Classes}{5}{subsection.2.2.2}}
\@writefile{lof}{\contentsline {figure}{\numberline {II.1}{\ignorespaces Les st\'er\'eotypes\relax }}{5}{figure.caption.5}}
\newlabel{fig:fig2}{{II.1}{5}{Les stéréotypes\relax \relax }{figure.caption.5}{}}
\@setckpt{Chapitre2/chapitre2}{
\setcounter{page}{6}
\setcounter{equation}{0}
\setcounter{enumi}{4}
\setcounter{enumii}{0}
\setcounter{enumiii}{0}
\setcounter{enumiv}{0}
\setcounter{footnote}{0}
\setcounter{mpfootnote}{0}
\setcounter{part}{0}
\setcounter{chapter}{2}
\setcounter{section}{2}
\setcounter{subsection}{2}
\setcounter{subsubsection}{0}
\setcounter{paragraph}{0}
\setcounter{subparagraph}{0}
\setcounter{figure}{1}
\setcounter{table}{0}
\setcounter{NAT@ctr}{0}
\setcounter{float@type}{8}
\setcounter{Item}{4}
\setcounter{bookmark@seq@number}{13}
\setcounter{mtc}{7}
\setcounter{minitocdepth}{2}
\setcounter{ptc}{0}
\setcounter{parttocdepth}{2}
\setcounter{parentequation}{0}
\setcounter{DefaultLines}{2}
\setcounter{L@lines}{0}
\setcounter{OptionTest}{0}
\setcounter{SC@C}{0}
\setcounter{ContinuedFloat}{0}
\setcounter{KVtest}{0}
\setcounter{subfigure}{0}
\setcounter{subfigure@save}{0}
\setcounter{lofdepth}{1}
\setcounter{subtable}{0}
\setcounter{subtable@save}{0}
\setcounter{lotdepth}{1}
\setcounter{lstnumber}{1}
\setcounter{section@level}{2}
\setcounter{minilofdepth}{2}
\setcounter{minilotdepth}{2}
\setcounter{partlofdepth}{2}
\setcounter{partlotdepth}{2}
\setcounter{sectlofdepth}{2}
\setcounter{sectlotdepth}{2}
\setcounter{lstlisting}{0}
}
