\relax 
\citation{YOUSFI2015}
\citation{YOUSFI2015}
\citation{Latex}
\citation{Latex}
\@writefile{toc}{\contentsline {chapter}{\numberline {III}R\'ealisation}{6}{chapter.3}}
\@writefile{lof}{\addvspace {10\p@ }}
\@writefile{lot}{\addvspace {10\p@ }}
\@writefile{lof}{\contentsline {xchapter}{R\'ealisation}{6}{chapter.3}}
\@writefile{lot}{\contentsline {xchapter}{R\'ealisation}{6}{chapter.3}}
\@writefile{toc}{\contentsline {section}{\numberline {1}Outils et langages utilis\'es}{6}{section.3.1}}
\@writefile{toc}{\contentsline {section}{\numberline {2}Pr\'esentation de l'application}{6}{section.3.2}}
\@writefile{brf}{\backcite{YOUSFI2015}{{7}{2}{section.3.2}}}
\@writefile{brf}{\backcite{Latex}{{7}{2}{section.3.2}}}
\@writefile{toc}{\contentsline {subsection}{\numberline {2.1}Exemple de tableau}{7}{subsection.3.2.1}}
\@writefile{lot}{\contentsline {table}{\numberline {III.1}{\ignorespaces Tableau comparatif\relax }}{7}{table.caption.8}}
\newlabel{tab:exple}{{III.1}{7}{Tableau comparatif\relax \relax }{table.caption.8}{}}
\@writefile{toc}{\contentsline {subsection}{\numberline {2.2}Exemple de Code}{7}{subsection.3.2.2}}
\newlabel{code:java}{{III.1}{7}{Helloworld Java\relax }{lstlisting.3.1}{}}
\@writefile{lol}{\contentsline {lstlisting}{\numberline {III.1}Helloworld Java}{7}{lstlisting.3.1}}
\@writefile{toc}{\contentsline {section}{\numberline {3}Remarques sur la bibliographie}{8}{section.3.3}}
\@setckpt{Chapitre3/chapitre3}{
\setcounter{page}{10}
\setcounter{equation}{0}
\setcounter{enumi}{4}
\setcounter{enumii}{0}
\setcounter{enumiii}{0}
\setcounter{enumiv}{0}
\setcounter{footnote}{0}
\setcounter{mpfootnote}{0}
\setcounter{part}{0}
\setcounter{chapter}{3}
\setcounter{section}{3}
\setcounter{subsection}{0}
\setcounter{subsubsection}{0}
\setcounter{paragraph}{0}
\setcounter{subparagraph}{0}
\setcounter{figure}{0}
\setcounter{table}{1}
\setcounter{NAT@ctr}{0}
\setcounter{float@type}{8}
\setcounter{Item}{4}
\setcounter{bookmark@seq@number}{19}
\setcounter{mtc}{8}
\setcounter{minitocdepth}{2}
\setcounter{ptc}{0}
\setcounter{parttocdepth}{2}
\setcounter{parentequation}{0}
\setcounter{DefaultLines}{2}
\setcounter{L@lines}{0}
\setcounter{OptionTest}{0}
\setcounter{SC@C}{0}
\setcounter{ContinuedFloat}{0}
\setcounter{KVtest}{0}
\setcounter{subfigure}{0}
\setcounter{subfigure@save}{0}
\setcounter{lofdepth}{1}
\setcounter{subtable}{0}
\setcounter{subtable@save}{0}
\setcounter{lotdepth}{1}
\setcounter{lstnumber}{8}
\setcounter{section@level}{1}
\setcounter{minilofdepth}{2}
\setcounter{minilotdepth}{2}
\setcounter{partlofdepth}{2}
\setcounter{partlotdepth}{2}
\setcounter{sectlofdepth}{2}
\setcounter{sectlotdepth}{2}
\setcounter{lstlisting}{1}
}
